  365  cd mastering-git/
  366  git pull upstream 
  367  git status
  368  rm text_file
  369  rm text_file_*
  370  git status
  371  git switch main
  372  git rm text_file.txt 
  373  git reset
  374  git status
  375  git switch main
  376  git reset
  377  git reste text_file.txt
  378  git reset text_file.txt
  379  git switch main
  380  git remove text_file.txt
  381* 
  382  git checkout  .
  383  git staus
  384  git status
  385  git switch main
  386  git status
  387  git pull
  388  git log
  389  git log --oneline 
  390  git log --oneline --grap
  391  git log --oneline --grapg
  392  git log --oneline --graph
  393  clear
  394  ls
  395  git log --oneline --graph
  396  git log --oneline --graph --all
  397  git pull upstream
  398  git pull upstream/main
  399  git pull upstream:main
  400  git pull upstream main
  401  ls
  402  git log --oneline --graph --all
  403  git log --oneline --graph
  404  git push orign
  405  git push origin
  406  git log --oneline --graph
  407  git branch
  408  git branch -D lab-3-test
  409  git branch -D lab-3-test-2 
  410  git branch -D some-other-branch 
  411  git branch -r
  412  git branch -a
  413  git log --oneline --graph
  414  clear
  415  nano class3_homework/536305.txt
  416  ls class3_homework/
  417  git add class3_homework/536305.txt
  418  git status
  419  git switch -c "536305 - HW03"
  420  git switch -c "536305_HW03"
  421  git commit -m "536305_HW03 - added the personal story file"
  422  git push -u origin HEAD
  423  git status
  424  history
